get_groups — get_groups • mxsem
…
#>     figurer : integer
#>     object  : integer
#>     numberf : integer
#>     figurew : integer
#>     deduct  : integer
#>     numeric : integer
#>     problemr: integer
#>     series  : integer
#>     arithmet: integer
#>     paperrev: integer
#>     flagssub: integer
#>   >
#> >[2]>
#> $group_1
#> # A tibble: 145 × 32
#>       id Gender grade  agey  agem school      visual cubes paper flags general
#>    <int> <fct>  <int> <int> <int> <fct>        <int> <int> <int> <int>   <int>
#>  1   201 Male       7    13     0 Grant-White     23    19    13     4      46
#>  2   202 Female     7    11    10 Grant-White     33    22    12    17      43
#>  3   203 Male       7    12     6 Grant-White     34    24    14    22      36
#>  4   204 Male       7    11    11 Grant-White     29    23    12     9      38
#>  5   205 Male       7    12     5 Grant-White     16    25    11    10      51
#>  6   206 Female     7    12     6 Grant-White     30    25    12    20      42
#>  7   208 Female     7    12     8 Grant-White     36    33    19    36      69
#>  8   209 Female     7    11    11 Grant-White     28    25    10     9      35
#>  9   210 Female     7    12     5 Grant-White     30    25    15    11      32
#> 10   211 Female     7    12     5 Grant-White     20    25    13     6      39
#> # ℹ 135 more rows
#> # ℹ 21 more variables: paragrap <int>, sentence <int>, wordc <int>,
#> #   wordm <int>, addition <int>, code <int>, counting <int>, straight <int>,
#> #   wordr <int>, numberr <int>, figurer <int>, object <int>, numberf <int>,
#> #   figurew <int>, deduct <int>, numeric <int>, problemr <int>, series <int>,
#> #   arithmet <int>, paperrev <int>, flagssub <int>
#> 
#> $group_2
#> # A tibble: 156 × 32
#>       id Gender grade  agey  agem school  visual cubes paper flags general
#>    <int> <fct>  <int> <int> <int> <fct>    <int> <int> <int> <int>   <int>
#>  1     1 Male       7    13     1 Pasteur     20    31    12     3      40
#>  2     2 Female     7    13     7 Pasteur     32    21    12    17      34
#>  3     3 Female     7    13     1 Pasteur     27    21    12    15      20
#>  4     4 Male       7    13     2 Pasteur     32    31    16    24      42
#>  5     5 Female     7    12     2 Pasteur     29    19    12     7      37
#>  6     6 Female     7    14     1 Pasteur     32    20    11    18      31
#>  7     7 Male       7    12     1 Pasteur     17    24    12     8      40
#>  8     8 Female     7    12     2 Pasteur     34    25    13    15      29
#>  9     9 Female     7    13     0 Pasteur     27    23    11    12      29
#> 10    11 Female     7    12     5 Pasteur     21    21    10     6      33
#> # ℹ 146 more rows
#> # ℹ 21 more variables: paragrap <int>, sentence <int>, wordc <int>,
#> #   wordm <int>, addition <int>, code <int>, counting <int>, straight <int>,
#> #   wordr <int>, numberr <int>, figurer <int>, object <int>, numberf <int>,
#> #   figurew <int>, deduct <int>, numeric <int>, problemr <int>, series <int>,
#> #   arithmet <int>, paperrev <int>, flagssub <int>
…
